[
{
    "model": "user.user",
    "pk": 1,
    "fields": {
        "password": "pbkdf2_sha256$260000$izoMrUAw0rTNqs2bu1drqt$07STvbgGGHLFVVt6jbLyvhDnoGLK8EgwTLxqyE11CMg=",
        "last_login": "2021-10-04T20:42:03.968Z",
        "is_superuser": true,
        "uuid": "3d73bf84-503b-4bbc-a5d6-521e780320be",
        "email": "manishlamichhane@gmail.com",
        "first_name": "Manish",
        "last_name": "Lamichhane",
        "is_staff": true,
        "is_active": true,
        "date_joined": "2021-10-04T20:36:54.029Z",
        "groups": [],
        "user_permissions": []
    }
}
]
